Episode #0 | Step #298 | Epsilon 0.99 | Reward -301.00 | Done True | Last Reward -1.0
Episode #1 | Step #582 | Epsilon 0.99 | Reward -287.00 | Done True | Last Reward -1.0
Episode #2 | Step #864 | Epsilon 0.98 | Reward -285.00 | Done True | Last Reward -1.0
Episode #3 | Step #991 | Epsilon 0.98 | Reward -25.00 | Done True | Last Reward 104.0
Episode #4 | Step #1087 | Epsilon 0.98 | Reward 6.00 | Done True | Last Reward 104.0
Episode #5 | Step #1367 | Epsilon 0.98 | Reward -283.00 | Done True | Last Reward -1.0
Episode #6 | Step #1662 | Epsilon 0.97 | Reward -298.00 | Done True | Last Reward -1.0
Episode #7 | Step #1695 | Epsilon 0.97 | Reward 69.00 | Done True | Last Reward 104.0
Episode #8 | Step #1887 | Epsilon 0.97 | Reward -90.00 | Done True | Last Reward 104.0
Episode #9 | Step #1890 | Epsilon 0.97 | Reward 99.00 | Done True | Last Reward 104.0
Episode #10 | Step #2179 | Epsilon 0.96 | Reward -292.00 | Done True | Last Reward -1.0
Episode #11 | Step #2183 | Epsilon 0.96 | Reward 98.00 | Done True | Last Reward 104.0
Episode #12 | Step #2189 | Epsilon 0.96 | Reward 96.00 | Done True | Last Reward 104.0
Episode #13 | Step #2229 | Epsilon 0.96 | Reward 62.00 | Done True | Last Reward 104.0
Episode #14 | Step #2421 | Epsilon 0.96 | Reward -90.00 | Done True | Last Reward 104.0
Episode #15 | Step #2642 | Epsilon 0.95 | Reward -119.00 | Done True | Last Reward 104.0
Episode #16 | Step #2693 | Epsilon 0.95 | Reward 51.00 | Done True | Last Reward 104.0
Episode #17 | Step #2701 | Epsilon 0.95 | Reward 94.00 | Done True | Last Reward 104.0
Episode #18 | Step #2777 | Epsilon 0.95 | Reward 26.00 | Done True | Last Reward 104.0
Episode #19 | Step #2983 | Epsilon 0.95 | Reward -104.00 | Done True | Last Reward 104.0
Episode #20 | Step #3261 | Epsilon 0.94 | Reward -281.00 | Done True | Last Reward -1.0
Episode #21 | Step #3306 | Epsilon 0.94 | Reward 57.00 | Done True | Last Reward 104.0
Episode #22 | Step #3382 | Epsilon 0.94 | Reward 26.00 | Done True | Last Reward 104.0
Episode #23 | Step #3664 | Epsilon 0.93 | Reward -285.00 | Done True | Last Reward -1.0
Episode #24 | Step #3944 | Epsilon 0.93 | Reward -283.00 | Done True | Last Reward -1.0
Episode #25 | Step #3948 | Epsilon 0.93 | Reward 98.00 | Done True | Last Reward 104.0
Episode #26 | Step #4230 | Epsilon 0.92 | Reward -285.00 | Done True | Last Reward -1.0
Episode #27 | Step #4513 | Epsilon 0.92 | Reward -286.00 | Done True | Last Reward -1.0
Episode #28 | Step #4654 | Epsilon 0.92 | Reward -39.00 | Done True | Last Reward 104.0
Episode #29 | Step #4935 | Epsilon 0.91 | Reward -284.00 | Done True | Last Reward -1.0
Episode #30 | Step #5214 | Epsilon 0.91 | Reward -282.00 | Done True | Last Reward -1.0
Episode #31 | Step #5469 | Epsilon 0.90 | Reward -153.00 | Done True | Last Reward 104.0
Episode #32 | Step #5553 | Epsilon 0.90 | Reward 18.00 | Done True | Last Reward 104.0
Episode #33 | Step #5835 | Epsilon 0.89 | Reward -285.00 | Done True | Last Reward -1.0
Episode #34 | Step #6117 | Epsilon 0.89 | Reward -285.00 | Done True | Last Reward -1.0
Episode #35 | Step #6248 | Epsilon 0.89 | Reward -29.00 | Done True | Last Reward 104.0
Episode #36 | Step #6263 | Epsilon 0.89 | Reward 87.00 | Done True | Last Reward 104.0
Episode #37 | Step #6545 | Epsilon 0.88 | Reward -285.00 | Done True | Last Reward -1.0
Episode #38 | Step #6825 | Epsilon 0.88 | Reward -283.00 | Done True | Last Reward -1.0
Episode #39 | Step #6851 | Epsilon 0.88 | Reward 76.00 | Done True | Last Reward 104.0
Episode #40 | Step #6856 | Epsilon 0.88 | Reward 97.00 | Done True | Last Reward 104.0
Episode #41 | Step #6866 | Epsilon 0.88 | Reward 92.00 | Done True | Last Reward 104.0
Episode #42 | Step #7145 | Epsilon 0.87 | Reward -282.00 | Done True | Last Reward -1.0
Episode #43 | Step #7239 | Epsilon 0.87 | Reward 8.00 | Done True | Last Reward 104.0
Episode #44 | Step #7244 | Epsilon 0.87 | Reward 97.00 | Done True | Last Reward 104.0
Episode #45 | Step #7260 | Epsilon 0.87 | Reward 86.00 | Done True | Last Reward 104.0
Episode #46 | Step #7407 | Epsilon 0.87 | Reward -45.00 | Done True | Last Reward 104.0
Episode #47 | Step #7436 | Epsilon 0.87 | Reward 73.00 | Done True | Last Reward 104.0
Episode #48 | Step #7718 | Epsilon 0.86 | Reward -285.00 | Done True | Last Reward -1.0
Episode #49 | Step #7797 | Epsilon 0.86 | Reward 23.00 | Done True | Last Reward 104.0
Episode #50 | Step #7807 | Epsilon 0.86 | Reward 92.00 | Done True | Last Reward 104.0
Episode #51 | Step #7896 | Epsilon 0.86 | Reward 13.00 | Done True | Last Reward 104.0
Episode #52 | Step #8069 | Epsilon 0.85 | Reward -71.00 | Done True | Last Reward 104.0
Episode #53 | Step #8351 | Epsilon 0.85 | Reward -285.00 | Done True | Last Reward -1.0
Episode #54 | Step #8409 | Epsilon 0.85 | Reward 44.00 | Done True | Last Reward 104.0
Episode #55 | Step #8503 | Epsilon 0.85 | Reward 8.00 | Done True | Last Reward 104.0
Episode #56 | Step #8783 | Epsilon 0.84 | Reward -283.00 | Done True | Last Reward -1.0
Episode #57 | Step #8954 | Epsilon 0.84 | Reward -69.00 | Done True | Last Reward 104.0
Episode #58 | Step #9233 | Epsilon 0.83 | Reward -282.00 | Done True | Last Reward -1.0
Episode #59 | Step #9353 | Epsilon 0.83 | Reward -18.00 | Done True | Last Reward 104.0
Episode #60 | Step #9372 | Epsilon 0.83 | Reward 83.00 | Done True | Last Reward 104.0
Episode #61 | Step #9377 | Epsilon 0.83 | Reward 97.00 | Done True | Last Reward 104.0
Episode #62 | Step #9658 | Epsilon 0.83 | Reward -284.00 | Done True | Last Reward -1.0
Episode #63 | Step #9665 | Epsilon 0.83 | Reward 95.00 | Done True | Last Reward 104.0
Episode #64 | Step #9675 | Epsilon 0.83 | Reward 92.00 | Done True | Last Reward 104.0
Episode #65 | Step #9679 | Epsilon 0.83 | Reward 98.00 | Done True | Last Reward 104.0
Episode #66 | Step #9759 | Epsilon 0.82 | Reward 22.00 | Done True | Last Reward 104.0
Episode #67 | Step #9832 | Epsilon 0.82 | Reward 29.00 | Done True | Last Reward 104.0
Episode #68 | Step #10116 | Epsilon 0.82 | Reward -287.00 | Done True | Last Reward -1.0
Episode #69 | Step #10396 | Epsilon 0.81 | Reward -283.00 | Done True | Last Reward -1.0
Episode #70 | Step #10465 | Epsilon 0.81 | Reward 33.00 | Done True | Last Reward 104.0
Episode #71 | Step #10478 | Epsilon 0.81 | Reward 89.00 | Done True | Last Reward 104.0
Episode #72 | Step #10564 | Epsilon 0.81 | Reward 16.00 | Done True | Last Reward 104.0
Episode #73 | Step #10586 | Epsilon 0.81 | Reward 80.00 | Done True | Last Reward 104.0
Episode #74 | Step #10868 | Epsilon 0.80 | Reward -285.00 | Done True | Last Reward -1.0
Episode #75 | Step #10879 | Epsilon 0.80 | Reward 91.00 | Done True | Last Reward 104.0
Episode #76 | Step #10891 | Epsilon 0.80 | Reward 90.00 | Done True | Last Reward 104.0
Episode #77 | Step #11172 | Epsilon 0.80 | Reward -284.00 | Done True | Last Reward -1.0
Episode #78 | Step #11456 | Epsilon 0.79 | Reward -287.00 | Done True | Last Reward -1.0
Episode #79 | Step #11517 | Epsilon 0.79 | Reward 41.00 | Done True | Last Reward 104.0
Episode #80 | Step #11542 | Epsilon 0.79 | Reward 77.00 | Done True | Last Reward 104.0
Episode #81 | Step #11834 | Epsilon 0.79 | Reward -295.00 | Done True | Last Reward -1.0
Episode #82 | Step #11874 | Epsilon 0.79 | Reward 62.00 | Done True | Last Reward 104.0
Episode #83 | Step #11878 | Epsilon 0.79 | Reward 98.00 | Done True | Last Reward 104.0
Episode #84 | Step #12161 | Epsilon 0.78 | Reward -286.00 | Done True | Last Reward -1.0
Episode #85 | Step #12188 | Epsilon 0.78 | Reward 75.00 | Done True | Last Reward 104.0
Episode #86 | Step #12475 | Epsilon 0.78 | Reward -290.00 | Done True | Last Reward -1.0
Episode #87 | Step #12559 | Epsilon 0.77 | Reward 18.00 | Done True | Last Reward 104.0
Episode #88 | Step #12565 | Epsilon 0.77 | Reward 96.00 | Done True | Last Reward 104.0
Episode #89 | Step #12805 | Epsilon 0.77 | Reward -138.00 | Done True | Last Reward 104.0
Episode #90 | Step #12846 | Epsilon 0.77 | Reward 61.00 | Done True | Last Reward 104.0
Episode #91 | Step #12895 | Epsilon 0.77 | Reward 53.00 | Done True | Last Reward 104.0
Episode #92 | Step #12903 | Epsilon 0.77 | Reward 94.00 | Done True | Last Reward 104.0
Episode #93 | Step #13185 | Epsilon 0.76 | Reward -285.00 | Done True | Last Reward -1.0
Episode #94 | Step #13466 | Epsilon 0.76 | Reward -284.00 | Done True | Last Reward -1.0
Episode #95 | Step #13748 | Epsilon 0.75 | Reward -285.00 | Done True | Last Reward -1.0
Episode #96 | Step #13770 | Epsilon 0.75 | Reward 80.00 | Done True | Last Reward 104.0
Episode #97 | Step #13804 | Epsilon 0.75 | Reward 68.00 | Done True | Last Reward 104.0
Episode #98 | Step #14100 | Epsilon 0.75 | Reward -299.00 | Done True | Last Reward -1.0
Episode #99 | Step #14107 | Epsilon 0.75 | Reward 95.00 | Done True | Last Reward 104.0
Episode #100 | Step #14144 | Epsilon 0.75 | Reward 65.00 | Done True | Last Reward 104.0
Episode #101 | Step #14425 | Epsilon 0.74 | Reward -284.00 | Done True | Last Reward -1.0
Episode #102 | Step #14459 | Epsilon 0.74 | Reward 68.00 | Done True | Last Reward 104.0
Episode #103 | Step #14744 | Epsilon 0.73 | Reward -288.00 | Done True | Last Reward -1.0
Episode #104 | Step #14826 | Epsilon 0.73 | Reward 20.00 | Done True | Last Reward 104.0
Episode #105 | Step #15106 | Epsilon 0.73 | Reward -283.00 | Done True | Last Reward -1.0
Episode #106 | Step #15385 | Epsilon 0.72 | Reward -282.00 | Done True | Last Reward -1.0
Episode #107 | Step #15420 | Epsilon 0.72 | Reward 67.00 | Done True | Last Reward 104.0
Episode #108 | Step #15459 | Epsilon 0.72 | Reward 63.00 | Done True | Last Reward 104.0
Episode #109 | Step #15479 | Epsilon 0.72 | Reward 82.00 | Done True | Last Reward 104.0
Episode #110 | Step #15482 | Epsilon 0.72 | Reward 99.00 | Done True | Last Reward 104.0
Episode #111 | Step #15764 | Epsilon 0.72 | Reward -285.00 | Done True | Last Reward -1.0
Episode #112 | Step #15770 | Epsilon 0.72 | Reward 96.00 | Done True | Last Reward 104.0
Episode #113 | Step #15862 | Epsilon 0.71 | Reward 10.00 | Done True | Last Reward 104.0
Episode #114 | Step #15913 | Epsilon 0.71 | Reward 51.00 | Done True | Last Reward 104.0
Episode #115 | Step #15928 | Epsilon 0.71 | Reward 87.00 | Done True | Last Reward 104.0
Episode #116 | Step #16208 | Epsilon 0.71 | Reward -283.00 | Done True | Last Reward -1.0
Episode #117 | Step #16243 | Epsilon 0.71 | Reward 67.00 | Done True | Last Reward 104.0
Episode #118 | Step #16525 | Epsilon 0.70 | Reward -285.00 | Done True | Last Reward -1.0
Episode #119 | Step #16540 | Epsilon 0.70 | Reward 87.00 | Done True | Last Reward 104.0
Episode #120 | Step #16820 | Epsilon 0.70 | Reward -283.00 | Done True | Last Reward -1.0
Episode #121 | Step #16872 | Epsilon 0.70 | Reward 50.00 | Done True | Last Reward 104.0
Episode #122 | Step #17152 | Epsilon 0.69 | Reward -283.00 | Done True | Last Reward -1.0
Episode #123 | Step #17182 | Epsilon 0.69 | Reward 72.00 | Done True | Last Reward 104.0
Episode #124 | Step #17196 | Epsilon 0.69 | Reward 88.00 | Done True | Last Reward 104.0
Episode #125 | Step #17262 | Epsilon 0.69 | Reward 36.00 | Done True | Last Reward 104.0
Episode #126 | Step #17541 | Epsilon 0.68 | Reward -282.00 | Done True | Last Reward -1.0
Episode #127 | Step #17617 | Epsilon 0.68 | Reward 26.00 | Done True | Last Reward 104.0
Episode #128 | Step #17899 | Epsilon 0.68 | Reward -285.00 | Done True | Last Reward -1.0
Episode #129 | Step #18180 | Epsilon 0.67 | Reward -284.00 | Done True | Last Reward -1.0
Episode #130 | Step #18462 | Epsilon 0.67 | Reward -285.00 | Done True | Last Reward -1.0
Episode #131 | Step #18474 | Epsilon 0.67 | Reward 90.00 | Done True | Last Reward 104.0
Episode #132 | Step #18485 | Epsilon 0.67 | Reward 91.00 | Done True | Last Reward 104.0
Episode #133 | Step #18491 | Epsilon 0.67 | Reward 96.00 | Done True | Last Reward 104.0
Episode #134 | Step #18497 | Epsilon 0.67 | Reward 96.00 | Done True | Last Reward 104.0
Episode #135 | Step #18776 | Epsilon 0.66 | Reward -282.00 | Done True | Last Reward -1.0
Episode #136 | Step #19058 | Epsilon 0.66 | Reward -285.00 | Done True | Last Reward -1.0
Episode #137 | Step #19096 | Epsilon 0.66 | Reward 64.00 | Done True | Last Reward 104.0
Episode #138 | Step #19128 | Epsilon 0.66 | Reward 70.00 | Done True | Last Reward 104.0
Episode #139 | Step #19176 | Epsilon 0.65 | Reward 54.00 | Done True | Last Reward 104.0
Episode #140 | Step #19458 | Epsilon 0.65 | Reward -285.00 | Done True | Last Reward -1.0
Episode #141 | Step #19736 | Epsilon 0.64 | Reward -281.00 | Done True | Last Reward -1.0
Episode #142 | Step #20017 | Epsilon 0.64 | Reward -284.00 | Done True | Last Reward -1.0
Episode #143 | Step #20062 | Epsilon 0.64 | Reward 57.00 | Done True | Last Reward 104.0
Episode #144 | Step #20065 | Epsilon 0.64 | Reward 99.00 | Done True | Last Reward 104.0
Episode #145 | Step #20344 | Epsilon 0.63 | Reward -282.00 | Done True | Last Reward -1.0
Episode #146 | Step #20379 | Epsilon 0.63 | Reward 67.00 | Done True | Last Reward 104.0
Episode #147 | Step #20661 | Epsilon 0.63 | Reward -285.00 | Done True | Last Reward -1.0
Episode #148 | Step #20666 | Epsilon 0.63 | Reward 97.00 | Done True | Last Reward 104.0
Episode #149 | Step #20758 | Epsilon 0.63 | Reward 10.00 | Done True | Last Reward 104.0
Episode #150 | Step #21037 | Epsilon 0.62 | Reward -282.00 | Done True | Last Reward -1.0
Episode #151 | Step #21317 | Epsilon 0.62 | Reward -283.00 | Done True | Last Reward -1.0
Episode #152 | Step #21600 | Epsilon 0.61 | Reward -286.00 | Done True | Last Reward -1.0
Episode #153 | Step #21603 | Epsilon 0.61 | Reward 99.00 | Done True | Last Reward 104.0
Episode #154 | Step #21885 | Epsilon 0.61 | Reward -285.00 | Done True | Last Reward -1.0
Episode #155 | Step #22165 | Epsilon 0.60 | Reward -283.00 | Done True | Last Reward -1.0
Episode #156 | Step #22168 | Epsilon 0.60 | Reward 99.00 | Done True | Last Reward 104.0
Episode #157 | Step #22448 | Epsilon 0.60 | Reward -283.00 | Done True | Last Reward -1.0
Episode #158 | Step #22730 | Epsilon 0.59 | Reward -285.00 | Done True | Last Reward -1.0
Episode #159 | Step #22735 | Epsilon 0.59 | Reward 97.00 | Done True | Last Reward 104.0
Episode #160 | Step #22777 | Epsilon 0.59 | Reward 60.00 | Done True | Last Reward 104.0
Episode #161 | Step #23057 | Epsilon 0.58 | Reward -283.00 | Done True | Last Reward -1.0
Episode #162 | Step #23090 | Epsilon 0.58 | Reward 69.00 | Done True | Last Reward 104.0
Episode #163 | Step #23374 | Epsilon 0.58 | Reward -287.00 | Done True | Last Reward -1.0
Episode #164 | Step #23412 | Epsilon 0.58 | Reward 64.00 | Done True | Last Reward 104.0
Episode #165 | Step #23462 | Epsilon 0.58 | Reward 52.00 | Done True | Last Reward 104.0
Episode #166 | Step #23744 | Epsilon 0.57 | Reward -285.00 | Done True | Last Reward -1.0
Episode #167 | Step #23769 | Epsilon 0.57 | Reward 77.00 | Done True | Last Reward 104.0
Episode #168 | Step #24050 | Epsilon 0.57 | Reward -284.00 | Done True | Last Reward -1.0
Episode #169 | Step #24334 | Epsilon 0.56 | Reward -287.00 | Done True | Last Reward -1.0
Episode #170 | Step #24618 | Epsilon 0.56 | Reward -287.00 | Done True | Last Reward -1.0
Episode #171 | Step #24898 | Epsilon 0.55 | Reward -283.00 | Done True | Last Reward -1.0
Episode #172 | Step #24913 | Epsilon 0.55 | Reward 87.00 | Done True | Last Reward 104.0
Episode #173 | Step #24923 | Epsilon 0.55 | Reward 92.00 | Done True | Last Reward 104.0
Episode #174 | Step #25202 | Epsilon 0.55 | Reward -282.00 | Done True | Last Reward -1.0
Episode #175 | Step #25212 | Epsilon 0.55 | Reward 92.00 | Done True | Last Reward 104.0
Episode #176 | Step #25494 | Epsilon 0.54 | Reward -285.00 | Done True | Last Reward -1.0
Episode #177 | Step #25775 | Epsilon 0.54 | Reward -284.00 | Done True | Last Reward -1.0
Episode #178 | Step #25823 | Epsilon 0.54 | Reward 54.00 | Done True | Last Reward 104.0
Episode #179 | Step #26104 | Epsilon 0.53 | Reward -284.00 | Done True | Last Reward -1.0
Episode #180 | Step #26124 | Epsilon 0.53 | Reward 82.00 | Done True | Last Reward 104.0
Episode #181 | Step #26406 | Epsilon 0.52 | Reward -285.00 | Done True | Last Reward -1.0
Episode #182 | Step #26409 | Epsilon 0.52 | Reward 99.00 | Done True | Last Reward 104.0
Episode #183 | Step #26442 | Epsilon 0.52 | Reward 69.00 | Done True | Last Reward 104.0
Episode #184 | Step #26453 | Epsilon 0.52 | Reward 91.00 | Done True | Last Reward 104.0
Episode #185 | Step #26734 | Epsilon 0.52 | Reward -284.00 | Done True | Last Reward -1.0
Episode #186 | Step #26760 | Epsilon 0.52 | Reward 76.00 | Done True | Last Reward 104.0
Episode #187 | Step #26776 | Epsilon 0.52 | Reward 86.00 | Done True | Last Reward 104.0
Episode #188 | Step #27058 | Epsilon 0.51 | Reward -285.00 | Done True | Last Reward -1.0
Episode #189 | Step #27063 | Epsilon 0.51 | Reward 97.00 | Done True | Last Reward 104.0
Episode #190 | Step #27345 | Epsilon 0.51 | Reward -285.00 | Done True | Last Reward -1.0
Episode #191 | Step #27629 | Epsilon 0.50 | Reward -287.00 | Done True | Last Reward -1.0
Episode #192 | Step #27645 | Epsilon 0.50 | Reward 86.00 | Done True | Last Reward 104.0
Episode #193 | Step #27927 | Epsilon 0.50 | Reward -285.00 | Done True | Last Reward -1.0
Episode #194 | Step #28211 | Epsilon 0.49 | Reward -287.00 | Done True | Last Reward -1.0
Episode #195 | Step #28490 | Epsilon 0.49 | Reward -282.00 | Done True | Last Reward -1.0
Episode #196 | Step #28771 | Epsilon 0.48 | Reward -284.00 | Done True | Last Reward -1.0
Episode #197 | Step #29051 | Epsilon 0.48 | Reward -283.00 | Done True | Last Reward -1.0
Episode #198 | Step #29331 | Epsilon 0.47 | Reward -283.00 | Done True | Last Reward -1.0
Episode #199 | Step #29340 | Epsilon 0.47 | Reward 93.00 | Done True | Last Reward 104.0
Episode #200 | Step #29363 | Epsilon 0.47 | Reward 79.00 | Done True | Last Reward 104.0
Episode #201 | Step #29643 | Epsilon 0.47 | Reward -283.00 | Done True | Last Reward -1.0
Episode #202 | Step #29925 | Epsilon 0.46 | Reward -285.00 | Done True | Last Reward -1.0
Episode #203 | Step #29956 | Epsilon 0.46 | Reward 71.00 | Done True | Last Reward 104.0
Episode #204 | Step #30238 | Epsilon 0.46 | Reward -285.00 | Done True | Last Reward -1.0
Episode #205 | Step #30520 | Epsilon 0.45 | Reward -285.00 | Done True | Last Reward -1.0
Episode #206 | Step #30548 | Epsilon 0.45 | Reward 74.00 | Done True | Last Reward 104.0
Episode #207 | Step #30828 | Epsilon 0.45 | Reward -283.00 | Done True | Last Reward -1.0
Episode #208 | Step #31108 | Epsilon 0.44 | Reward -283.00 | Done True | Last Reward -1.0
Episode #209 | Step #31392 | Epsilon 0.43 | Reward -287.00 | Done True | Last Reward -1.0
Episode #210 | Step #31398 | Epsilon 0.43 | Reward 96.00 | Done True | Last Reward 104.0
Episode #211 | Step #31678 | Epsilon 0.43 | Reward -283.00 | Done True | Last Reward -1.0
Episode #212 | Step #31685 | Epsilon 0.43 | Reward 95.00 | Done True | Last Reward 104.0
Episode #213 | Step #31707 | Epsilon 0.43 | Reward 80.00 | Done True | Last Reward 104.0
Episode #214 | Step #31987 | Epsilon 0.42 | Reward -283.00 | Done True | Last Reward -1.0
Episode #215 | Step #32267 | Epsilon 0.42 | Reward -283.00 | Done True | Last Reward -1.0
Episode #216 | Step #32548 | Epsilon 0.41 | Reward -284.00 | Done True | Last Reward -1.0
Episode #217 | Step #32560 | Epsilon 0.41 | Reward 90.00 | Done True | Last Reward 104.0
Episode #218 | Step #32578 | Epsilon 0.41 | Reward 84.00 | Done True | Last Reward 104.0
Episode #219 | Step #32859 | Epsilon 0.41 | Reward -284.00 | Done True | Last Reward -1.0
Episode #220 | Step #33137 | Epsilon 0.40 | Reward -281.00 | Done True | Last Reward -1.0
Episode #221 | Step #33156 | Epsilon 0.40 | Reward 83.00 | Done True | Last Reward 104.0
Episode #222 | Step #33437 | Epsilon 0.40 | Reward -284.00 | Done True | Last Reward -1.0
Episode #223 | Step #33449 | Epsilon 0.40 | Reward 90.00 | Done True | Last Reward 104.0
Episode #224 | Step #33478 | Epsilon 0.40 | Reward 73.00 | Done True | Last Reward 104.0
Episode #225 | Step #33758 | Epsilon 0.39 | Reward -283.00 | Done True | Last Reward -1.0
Episode #226 | Step #33762 | Epsilon 0.39 | Reward 98.00 | Done True | Last Reward 104.0
Episode #227 | Step #33765 | Epsilon 0.39 | Reward 99.00 | Done True | Last Reward 104.0
Episode #228 | Step #34044 | Epsilon 0.39 | Reward -282.00 | Done True | Last Reward -1.0
Episode #229 | Step #34328 | Epsilon 0.38 | Reward -287.00 | Done True | Last Reward -1.0
Episode #230 | Step #34610 | Epsilon 0.38 | Reward -285.00 | Done True | Last Reward -1.0
Episode #231 | Step #34894 | Epsilon 0.37 | Reward -287.00 | Done True | Last Reward -1.0
Episode #232 | Step #34903 | Epsilon 0.37 | Reward 93.00 | Done True | Last Reward 104.0
Episode #233 | Step #35182 | Epsilon 0.37 | Reward -282.00 | Done True | Last Reward -1.0
Episode #234 | Step #35463 | Epsilon 0.36 | Reward -284.00 | Done True | Last Reward -1.0
Episode #235 | Step #35475 | Epsilon 0.36 | Reward 90.00 | Done True | Last Reward 104.0
Episode #236 | Step #35757 | Epsilon 0.36 | Reward -285.00 | Done True | Last Reward -1.0
Episode #237 | Step #36038 | Epsilon 0.35 | Reward -284.00 | Done True | Last Reward -1.0
Episode #238 | Step #36320 | Epsilon 0.35 | Reward -285.00 | Done True | Last Reward -1.0
Episode #239 | Step #36344 | Epsilon 0.35 | Reward 78.00 | Done True | Last Reward 104.0
Episode #240 | Step #36626 | Epsilon 0.34 | Reward -285.00 | Done True | Last Reward -1.0
Episode #241 | Step #36910 | Epsilon 0.34 | Reward -287.00 | Done True | Last Reward -1.0
Episode #242 | Step #37194 | Epsilon 0.33 | Reward -287.00 | Done True | Last Reward -1.0
Episode #243 | Step #37473 | Epsilon 0.33 | Reward -282.00 | Done True | Last Reward -1.0
Episode #244 | Step #37753 | Epsilon 0.32 | Reward -283.00 | Done True | Last Reward -1.0
Episode #245 | Step #38033 | Epsilon 0.32 | Reward -283.00 | Done True | Last Reward -1.0
Episode #246 | Step #38052 | Epsilon 0.32 | Reward 83.00 | Done True | Last Reward 104.0
Episode #247 | Step #38332 | Epsilon 0.31 | Reward -283.00 | Done True | Last Reward -1.0
Episode #248 | Step #38611 | Epsilon 0.31 | Reward -282.00 | Done True | Last Reward -1.0
Episode #249 | Step #38890 | Epsilon 0.30 | Reward -282.00 | Done True | Last Reward -1.0
Episode #250 | Step #38896 | Epsilon 0.30 | Reward 96.00 | Done True | Last Reward 104.0
Episode #251 | Step #38899 | Epsilon 0.30 | Reward 99.00 | Done True | Last Reward 104.0
Episode #252 | Step #39180 | Epsilon 0.29 | Reward -284.00 | Done True | Last Reward -1.0
Episode #253 | Step #39460 | Epsilon 0.29 | Reward -283.00 | Done True | Last Reward -1.0
Episode #254 | Step #39472 | Epsilon 0.29 | Reward 90.00 | Done True | Last Reward 104.0
Episode #255 | Step #39494 | Epsilon 0.29 | Reward 80.00 | Done True | Last Reward 104.0
Episode #256 | Step #39773 | Epsilon 0.28 | Reward -282.00 | Done True | Last Reward -1.0
Episode #257 | Step #40052 | Epsilon 0.28 | Reward -282.00 | Done True | Last Reward -1.0
Episode #258 | Step #40336 | Epsilon 0.27 | Reward -287.00 | Done True | Last Reward -1.0
Episode #259 | Step #40620 | Epsilon 0.27 | Reward -287.00 | Done True | Last Reward -1.0
Episode #260 | Step #40904 | Epsilon 0.26 | Reward -287.00 | Done True | Last Reward -1.0
Episode #261 | Step #40909 | Epsilon 0.26 | Reward 97.00 | Done True | Last Reward 104.0
Episode #262 | Step #41188 | Epsilon 0.26 | Reward -282.00 | Done True | Last Reward -1.0
Episode #263 | Step #41486 | Epsilon 0.25 | Reward -300.00 | Done True | Last Reward -1.0
Episode #264 | Step #41500 | Epsilon 0.25 | Reward 88.00 | Done True | Last Reward 104.0
Episode #265 | Step #41774 | Epsilon 0.25 | Reward -277.00 | Done True | Last Reward -1.0
Episode #266 | Step #42053 | Epsilon 0.25 | Reward -282.00 | Done True | Last Reward -1.0
Episode #267 | Step #42073 | Epsilon 0.25 | Reward 82.00 | Done True | Last Reward 104.0
Episode #268 | Step #42352 | Epsilon 0.25 | Reward -282.00 | Done True | Last Reward -1.0
Episode #269 | Step #42635 | Epsilon 0.25 | Reward -286.00 | Done True | Last Reward -1.0
Episode #270 | Step #42915 | Epsilon 0.25 | Reward -283.00 | Done True | Last Reward -1.0
Episode #271 | Step #42932 | Epsilon 0.25 | Reward 85.00 | Done True | Last Reward 104.0
Episode #272 | Step #42935 | Epsilon 0.25 | Reward 99.00 | Done True | Last Reward 104.0
Episode #273 | Step #43219 | Epsilon 0.25 | Reward -287.00 | Done True | Last Reward -1.0
Episode #274 | Step #43258 | Epsilon 0.25 | Reward 63.00 | Done True | Last Reward 104.0
Episode #275 | Step #43261 | Epsilon 0.25 | Reward 99.00 | Done True | Last Reward 104.0
Episode #276 | Step #43290 | Epsilon 0.25 | Reward 73.00 | Done True | Last Reward 104.0
Episode #277 | Step #43570 | Epsilon 0.25 | Reward -283.00 | Done True | Last Reward -1.0
Episode #278 | Step #43849 | Epsilon 0.25 | Reward -282.00 | Done True | Last Reward -1.0
Episode #279 | Step #43863 | Epsilon 0.25 | Reward 88.00 | Done True | Last Reward 104.0
Episode #280 | Step #44144 | Epsilon 0.25 | Reward -284.00 | Done True | Last Reward -1.0
Episode #281 | Step #44425 | Epsilon 0.25 | Reward -284.00 | Done True | Last Reward -1.0
Episode #282 | Step #44705 | Epsilon 0.25 | Reward -283.00 | Done True | Last Reward -1.0
Episode #283 | Step #44985 | Epsilon 0.25 | Reward -283.00 | Done True | Last Reward -1.0
Episode #284 | Step #45003 | Epsilon 0.25 | Reward 84.00 | Done True | Last Reward 104.0
Episode #285 | Step #45295 | Epsilon 0.25 | Reward -295.00 | Done True | Last Reward -1.0
Episode #286 | Step #45575 | Epsilon 0.25 | Reward -283.00 | Done True | Last Reward -1.0
Episode #287 | Step #45859 | Epsilon 0.25 | Reward -287.00 | Done True | Last Reward -1.0
Episode #288 | Step #46146 | Epsilon 0.25 | Reward -290.00 | Done True | Last Reward -1.0
Episode #289 | Step #46426 | Epsilon 0.25 | Reward -283.00 | Done True | Last Reward -1.0
Episode #290 | Step #46712 | Epsilon 0.25 | Reward -289.00 | Done True | Last Reward -1.0
Episode #291 | Step #46992 | Epsilon 0.25 | Reward -283.00 | Done True | Last Reward -1.0
Episode #292 | Step #47283 | Epsilon 0.25 | Reward -294.00 | Done True | Last Reward -1.0
Episode #293 | Step #47564 | Epsilon 0.25 | Reward -284.00 | Done True | Last Reward -1.0
Episode #294 | Step #47587 | Epsilon 0.25 | Reward 79.00 | Done True | Last Reward 104.0
Episode #295 | Step #47867 | Epsilon 0.25 | Reward -283.00 | Done True | Last Reward -1.0
Episode #296 | Step #48147 | Epsilon 0.25 | Reward -283.00 | Done True | Last Reward -1.0
Episode #297 | Step #48426 | Epsilon 0.25 | Reward -282.00 | Done True | Last Reward -1.0
Episode #298 | Step #48707 | Epsilon 0.25 | Reward -284.00 | Done True | Last Reward -1.0
Episode #299 | Step #48718 | Epsilon 0.25 | Reward 91.00 | Done True | Last Reward 104.0
Episode #300 | Step #49002 | Epsilon 0.25 | Reward -287.00 | Done True | Last Reward -1.0
Episode #301 | Step #49284 | Epsilon 0.25 | Reward -285.00 | Done True | Last Reward -1.0
Episode #302 | Step #49568 | Epsilon 0.25 | Reward -287.00 | Done True | Last Reward -1.0
Episode #303 | Step #49576 | Epsilon 0.25 | Reward 94.00 | Done True | Last Reward 104.0
Episode #304 | Step #49875 | Epsilon 0.25 | Reward -302.00 | Done True | Last Reward -1.0
Episode #305 | Step #50155 | Epsilon 0.25 | Reward -283.00 | Done True | Last Reward -1.0
Episode #306 | Step #50184 | Epsilon 0.25 | Reward 73.00 | Done True | Last Reward 104.0
Episode #307 | Step #50475 | Epsilon 0.25 | Reward -294.00 | Done True | Last Reward -1.0
Episode #308 | Step #50500 | Epsilon 0.25 | Reward 77.00 | Done True | Last Reward 104.0
Episode #309 | Step #50541 | Epsilon 0.25 | Reward 61.00 | Done True | Last Reward 104.0
Episode #310 | Step #50582 | Epsilon 0.25 | Reward 61.00 | Done True | Last Reward 104.0
Episode #311 | Step #50860 | Epsilon 0.25 | Reward -281.00 | Done True | Last Reward -1.0
Episode #312 | Step #50885 | Epsilon 0.25 | Reward 77.00 | Done True | Last Reward 104.0
Episode #313 | Step #50892 | Epsilon 0.25 | Reward 95.00 | Done True | Last Reward 104.0
Episode #314 | Step #51174 | Epsilon 0.25 | Reward -285.00 | Done True | Last Reward -1.0
Episode #315 | Step #51458 | Epsilon 0.25 | Reward -287.00 | Done True | Last Reward -1.0
Episode #316 | Step #51742 | Epsilon 0.25 | Reward -287.00 | Done True | Last Reward -1.0
Episode #317 | Step #51834 | Epsilon 0.25 | Reward 10.00 | Done True | Last Reward 104.0
Episode #318 | Step #51857 | Epsilon 0.25 | Reward 79.00 | Done True | Last Reward 104.0
Episode #319 | Step #52139 | Epsilon 0.25 | Reward -285.00 | Done True | Last Reward -1.0
Episode #320 | Step #52258 | Epsilon 0.25 | Reward -17.00 | Done True | Last Reward 104.0
Episode #321 | Step #52537 | Epsilon 0.25 | Reward -282.00 | Done True | Last Reward -1.0
Episode #322 | Step #52577 | Epsilon 0.25 | Reward 62.00 | Done True | Last Reward 104.0
Episode #323 | Step #52594 | Epsilon 0.25 | Reward 85.00 | Done True | Last Reward 104.0
Episode #324 | Step #52597 | Epsilon 0.25 | Reward 99.00 | Done True | Last Reward 104.0
Episode #325 | Step #52879 | Epsilon 0.25 | Reward -285.00 | Done True | Last Reward -1.0
Episode #326 | Step #53163 | Epsilon 0.25 | Reward -287.00 | Done True | Last Reward -1.0
Episode #327 | Step #53447 | Epsilon 0.25 | Reward -287.00 | Done True | Last Reward -1.0
Episode #328 | Step #53453 | Epsilon 0.25 | Reward 96.00 | Done True | Last Reward 104.0
Episode #329 | Step #53735 | Epsilon 0.25 | Reward -285.00 | Done True | Last Reward -1.0
Episode #330 | Step #53760 | Epsilon 0.25 | Reward 77.00 | Done True | Last Reward 104.0
Episode #331 | Step #54041 | Epsilon 0.25 | Reward -284.00 | Done True | Last Reward -1.0
Episode #332 | Step #54325 | Epsilon 0.25 | Reward -287.00 | Done True | Last Reward -1.0
Episode #333 | Step #54403 | Epsilon 0.25 | Reward 24.00 | Done True | Last Reward 104.0
Episode #334 | Step #54411 | Epsilon 0.25 | Reward 94.00 | Done True | Last Reward 104.0
Episode #335 | Step #54432 | Epsilon 0.25 | Reward 81.00 | Done True | Last Reward 104.0
Episode #336 | Step #54507 | Epsilon 0.25 | Reward 27.00 | Done True | Last Reward 104.0
Episode #337 | Step #54789 | Epsilon 0.25 | Reward -285.00 | Done True | Last Reward -1.0
Episode #338 | Step #54795 | Epsilon 0.25 | Reward 96.00 | Done True | Last Reward 104.0
Episode #339 | Step #54906 | Epsilon 0.25 | Reward -9.00 | Done True | Last Reward 104.0
Episode #340 | Step #55185 | Epsilon 0.25 | Reward -282.00 | Done True | Last Reward -1.0
Episode #341 | Step #55467 | Epsilon 0.25 | Reward -285.00 | Done True | Last Reward -1.0
Episode #342 | Step #55482 | Epsilon 0.25 | Reward 87.00 | Done True | Last Reward 104.0
Episode #343 | Step #55492 | Epsilon 0.25 | Reward 92.00 | Done True | Last Reward 104.0
Episode #344 | Step #55772 | Epsilon 0.25 | Reward -283.00 | Done True | Last Reward -1.0
Episode #345 | Step #55799 | Epsilon 0.25 | Reward 75.00 | Done True | Last Reward 104.0
Episode #346 | Step #56078 | Epsilon 0.25 | Reward -282.00 | Done True | Last Reward -1.0
Episode #347 | Step #56363 | Epsilon 0.25 | Reward -288.00 | Done True | Last Reward -1.0
Episode #348 | Step #56408 | Epsilon 0.25 | Reward 57.00 | Done True | Last Reward 104.0
Episode #349 | Step #56692 | Epsilon 0.25 | Reward -287.00 | Done True | Last Reward -1.0
Episode #350 | Step #56885 | Epsilon 0.25 | Reward -91.00 | Done True | Last Reward 104.0
Episode #351 | Step #56888 | Epsilon 0.25 | Reward 99.00 | Done True | Last Reward 104.0
Episode #352 | Step #57013 | Epsilon 0.25 | Reward -23.00 | Done True | Last Reward 104.0
Episode #353 | Step #57150 | Epsilon 0.25 | Reward -35.00 | Done True | Last Reward 104.0
Episode #354 | Step #57171 | Epsilon 0.25 | Reward 81.00 | Done True | Last Reward 104.0
Episode #355 | Step #57262 | Epsilon 0.25 | Reward 11.00 | Done True | Last Reward 104.0
Episode #356 | Step #57544 | Epsilon 0.25 | Reward -285.00 | Done True | Last Reward -1.0
Episode #357 | Step #57668 | Epsilon 0.25 | Reward -22.00 | Done True | Last Reward 104.0
Episode #358 | Step #57949 | Epsilon 0.25 | Reward -284.00 | Done True | Last Reward -1.0
Episode #359 | Step #58231 | Epsilon 0.25 | Reward -285.00 | Done True | Last Reward -1.0
Episode #360 | Step #58265 | Epsilon 0.25 | Reward 68.00 | Done True | Last Reward 104.0
Episode #361 | Step #58544 | Epsilon 0.25 | Reward -282.00 | Done True | Last Reward -1.0
Episode #362 | Step #58551 | Epsilon 0.25 | Reward 95.00 | Done True | Last Reward 104.0
Episode #363 | Step #58565 | Epsilon 0.25 | Reward 88.00 | Done True | Last Reward 104.0
Episode #364 | Step #58847 | Epsilon 0.25 | Reward -285.00 | Done True | Last Reward -1.0
Episode #365 | Step #58970 | Epsilon 0.25 | Reward -21.00 | Done True | Last Reward 104.0
Episode #366 | Step #59252 | Epsilon 0.25 | Reward -285.00 | Done True | Last Reward -1.0
Episode #367 | Step #59273 | Epsilon 0.25 | Reward 81.00 | Done True | Last Reward 104.0
Episode #368 | Step #59554 | Epsilon 0.25 | Reward -284.00 | Done True | Last Reward -1.0
Episode #369 | Step #59609 | Epsilon 0.25 | Reward 47.00 | Done True | Last Reward 104.0
Episode #370 | Step #59890 | Epsilon 0.25 | Reward -284.00 | Done True | Last Reward -1.0
Episode #371 | Step #60170 | Epsilon 0.25 | Reward -283.00 | Done True | Last Reward -1.0
Episode #372 | Step #60254 | Epsilon 0.25 | Reward 18.00 | Done True | Last Reward 104.0
Episode #373 | Step #60337 | Epsilon 0.25 | Reward 19.00 | Done True | Last Reward 104.0
